{"hash":"1e9e86d01c0529cdd0f58c889ddbb532a300a1d8","data":{"posts":{"totalCount":13,"pageInfo":{"totalPages":3,"currentPage":3},"edges":[{"node":{"id":"0a7922728fb39b7051e5f278849f7279","title":"Jeffsum, a Jeff Goldblum movie lines text placeholder generator","timeToRead":2,"datetime":"2018-02-24 18:23:28","content":"<p><a href=\"https://jeffsum.com/\" target=\"_blank\" rel=\"nofollow noopener noreferrer\">https://jeffsum.com/</a></p>\n<p>Yeah, but your scientists were so preoccupied with whether or not they could, they didn't stop to think if they should. I gave it a cold? I gave it a virus. A computer virus. Just my luck, no ice. Yeah, but your scientists were so preoccupied with whether or not they could, they didn't stop to think if they should.</p>\n<p>Do you have any idea how long it takes those cups to decompose. So you two dig up, dig up dinosaurs? Yeah, but your scientists were so preoccupied with whether or not they could, they didn't stop to think if they should. Eventually, you do plan to have dinosaurs on your dinosaur tour, right?</p>\n<p>Yes, Yes, without the oops! You know what? It is beets. I've crashed into a beet truck. Hey, you know how I'm, like, always trying to save the planet? Here's my chance. Did he just throw my cat out of the window? Must go faster. This thing comes fully loaded. AM/FM radio, reclining bucket seats, and... power windows.</p>\n<p>Yeah, but your scientists were so preoccupied with whether or not they could, they didn't stop to think if they should. What do they got in there? King Kong? My dad once told me, laugh and the world laughs with you, Cry, and I'll give you something to cry about you little bastard!</p>\n<p>Jaguar shark! So tell me - does it really exist? Yeah, but John, if The Pirates of the Caribbean breaks down, the pirates don’t eat the tourists. God help us, we're in the hands of engineers. God help us, we're in the hands of engineers. Eventually, you do plan to have dinosaurs on your dinosaur tour, right?</p>\n<p>My dad once told me, laugh and the world laughs with you, Cry, and I'll give you something to cry about you little bastard! Life finds a way. God creates dinosaurs. God destroys dinosaurs. God creates Man. Man destroys God. Man creates Dinosaurs. My dad once told me, laugh and the world laughs with you, Cry, and I'll give you something to cry about you little bastard!</p>\n<p>I was part of something special. Life finds a way. Yeah, but your scientists were so preoccupied with whether or not they could, they didn't stop to think if they should. My dad once told me, laugh and the world laughs with you, Cry, and I'll give you something to cry about you little bastard!</p>\n<p>What do they got in there? King Kong? You really think you can fly that thing? Yeah, but John, if The Pirates of the Caribbean breaks down, the pirates don’t eat the tourists. You really think you can fly that thing? Must go faster... go, go, go, go, go!</p>\n<p>Checkmate... Remind me to thank John for a lovely weekend. You know what? It is beets. I've crashed into a beet truck. Jaguar shark! So tell me - does it really exist? Is this my espresso machine? Wh-what is-h-how did you get my espresso machine? What do they got in there? King Kong?</p>\n","excerpt":"Yeah, but your scientists were so preoccupied with whether or not they could, they didn't stop to think if they should. I gave it a cold? I gave it a virus. A computer virus. Just my luck, no ice. Yeah, but your scientists were so preoccupied with whether or not they could, they didn't stop to think if they should [...]","description":"A little text placeholder generator of Jeff Goldblum awesomeness.","path":"/jeffsum-a-jeff-goldblum-movie-lines-text-placeholder-generator/","cover":"","tags":[{"id":"tools","title":"tools","path":"/tag/tools/"},{"id":"dummy","title":"dummy","path":"/tag/dummy/"}],"author":{"id":"bleda","title":"bleda","path":"/author/bleda/"}}}]}},"context":{}}