{"hash":"1e9e86d01c0529cdd0f58c889ddbb532a300a1d8","data":{"author":{"id":"gridsome","title":"gridsome","path":"/author/gridsome/","belongsTo":{"totalCount":9,"pageInfo":{"totalPages":2,"currentPage":2},"edges":[{"node":{"id":"68d7477801b10520286a19a2d8c9360b","title":"Happy little quotes from Bob Ross","datetime":"2019-02-22 13:59:57","path":"/happy-little-quotes-from-bob-ross/","content":"<p>We'll put a happy little bush here. A little happy sunlight shining through there. We tell people sometimes: we're like drug dealers, come into town and get everybody absolutely addicted to painting. It doesn't take much to get you addicted. Trees get lonely too, so we'll give him a little friend. Nothing's gonna make your husband or wife madder than coming home and having a snow-covered dinner. Let your imagination be your guide.</p>\n<p>If these lines aren't straight, your water's going to run right out of your painting and get your floor wet. There's not a thing in the world wrong with washing your brush. If what you're doing doesn't make you happy - you're doing the wrong thing.</p>\n<p>This is probably the greatest thing to happen in my life - to be able to share this with you. You're meant to have fun in life. And maybe, maybe, maybe... We'll paint one happy little tree right here. How do you make a round circle with a square knife? That's your challenge for the day. The very fact that you're aware of suffering is enough reason to be overjoyed that you're alive and can experience it.</p>\n<p>It's cold, but it's beautiful. When you do it your way you can go anywhere you choose. Little trees and bushes grow however makes them happy.</p>\n<p>Volunteering your time; it pays you and your whole community fantastic dividends. Maybe there's a happy little Evergreen that lives here. We'll lay all these little funky little things in there. Everyone wants to enjoy the good parts - but you have to build the framework first. Let your heart be your guide.</p>\n<p>It is a lot of fun. Isn't it fantastic that you can change your mind and create all these happy things? It's almost like something out of a fairytale book.</p>\n<p>This is the fun part Just let your mind wander and enjoy. This should make you happy. You can work and carry-on and put lots of little happy things in here.</p>\n","excerpt":"","description":"This is probably the greatest thing to happen in my life - to be able to share this with you.","timeToRead":1,"tags":[{"id":"art","title":"art","path":"/tag/art/"},{"id":"dummy","title":"dummy","path":"/tag/dummy/"}]}},{"node":{"id":"7b741eb7ff23c06eee803bfbbc596f74","title":"The Sweetest Ipsum","datetime":"2019-02-21 13:59:57","path":"/the-sweetest-ipsum/","content":"<p>Pudding croissant jujubes lemon drops brownie jelly-o wafer sweet roll pastry. Lollipop powder halvah croissant dessert oat cake icing powder pudding. Tart candy halvah soufflé lollipop. Pastry gummi bears candy muffin halvah powder. Oat cake muffin halvah halvah marzipan wafer sesame snaps. Croissant fruitcake sugar plum danish macaroon wafer chupa chups. Cheesecake toffee candy canes candy. Cotton candy gingerbread muffin chocolate cake.</p>\n<p>Cake fruitcake bear claw muffin jelly beans chocolate cake. Apple pie sesame snaps tart wafer pastry. Dessert gingerbread biscuit chupa chups gummies cupcake. Sweet powder gummi bears lemon drops gummi bears chocolate bar carrot cake. Oat cake cupcake lollipop halvah gingerbread pudding ice cream sesame snaps. Jelly sweet roll gingerbread topping pie chupa chups wafer. Bear claw fruitcake pie marzipan tootsie roll wafer cheesecake. Gingerbread gummi bears icing croissant chupa chups oat cake.</p>\n<h2 id=\"jelly-o-jujubes\"><a href=\"#jelly-o-jujubes\" aria-hidden=\"true\"><span class=\"icon icon-link\"></span></a>Jelly-o jujubes!</h2>\n<p>Tiramisu gummi bears apple pie caramels powder. Gummies jelly beans soufflé chocolate cake gingerbread lemon drops wafer. Halvah tiramisu chupa chups cotton candy chupa chups lollipop croissant bonbon. Wafer tart dragée lollipop pie tiramisu. Chocolate tootsie roll chocolate cake pudding macaroon macaroon tart cupcake. Wafer brownie sugar plum topping chocolate cake carrot cake marzipan. Sugar plum lollipop topping gummies.</p>\n<p>Carrot cake cheesecake caramels. Apple pie oat cake biscuit candy croissant bonbon halvah cheesecake marshmallow. Tiramisu topping dessert marzipan dragée jelly beans sweet roll wafer sugar plum. Sugar plum bear claw biscuit chocolate bar pudding ice cream macaroon chupa chups wafer. Biscuit gummies cheesecake dragée dragée jujubes candy pie jelly-o. Icing tiramisu powder. Marshmallow chocolate halvah donut cheesecake sugar plum. Topping sweet roll dessert croissant chupa chups danish tiramisu marzipan carrot cake. Cake jelly-o powder apple pie topping wafer jujubes halvah. Jelly-o marshmallow soufflé muffin wafer cotton candy.</p>\n<p>Candy canes chupa chups jelly beans cotton candy cookie tart caramels apple pie. Soufflé muffin marzipan sesame snaps dessert lollipop tart. Danish caramels tiramisu halvah wafer jelly. Croissant marzipan tart cookie pastry biscuit chocolate bar liquorice. Brownie jelly-o toffee sweet roll topping tiramisu. Powder marshmallow candy canes caramels. Jelly-o cookie marzipan dessert gummies donut candy canes marshmallow.</p>\n","excerpt":"","description":"Croissant fruitcake sugar plum danish macaroon wafer chupa chups.","timeToRead":2,"tags":[{"id":"food","title":"food","path":"/tag/food/"},{"id":"dummy","title":"dummy","path":"/tag/dummy/"}]}},{"node":{"id":"972a735664a02bd7f9c2f02943333249","title":"Extraterrestrial sightings","datetime":"2019-02-20 13:59:57","path":"/extraterrestrial-sightings/","content":"<p>Ancient alien Giorgio evidence clearly megoliths electromagnetic Indian texts spaceships, earth mound megoliths burmuta triangle contend UFO mercury. Electromagnetic magnetic current kachina doll sun disc NASA, I know it sounds crazy... Extraterrestrial, sightings electromagnetic flying vessels crystal skull. Helicopter heiroglyph burmuta triangle Indian texts cover up, Mayan inter-dimensional ancient alien sun disc, otherworldly visitors mystery legendary times astronaut extraterrestrial.</p>\n<p>Sightings Easter island evidence Indian texts alien SETI portal foo fighter, mystery Puma Punku Nazca lines gods extraterrestrial. Sumerian texts evidence SETI sightings ancient alien elongated skull vimana Mahabharata vortex, the answer is a resounding YES... Golden disk. Extraterrestrial origin space travel, I know it sounds crazy... Sumerian texts flying vessels, Indian texts otherworldly visitors anti-gravity technology megoliths. Indian texts mainstream archaelogy technology pyramids contend, worm hole otherworldly visitors alien, vimana Chariot of the Gods.</p>\n<blockquote>\n<p>Space travel pre-colonial aerodynamics kachina doll Chariot of the Gods weightless evidence megoliths, DNA manipulation legendary times vortex clearly DNA manipulation petroglyph alien legendary times sanskrit. I know it sounds crazy...</p>\n</blockquote>\n<p>Spaceships, Machu Picchu extraterrestrial origin sanskrit, sky people otherworldly visitors.</p>\n<p>Machu Picchu legendary times alien weightless sky people burmuta triangle mainstream archaelogy sightings Giorgio, Chariot of the Gods kachina doll vortex Mayan Chariot of the Gods, cover up Sumerian texts portal burmuta triangle extraterrestrial technology pyramids. I know it sounds crazy... Alien elongated skull Machu Picchu contend, grey burmuta triangle mercury legendary times flying vessels, Vymaanika-Shaastra NASA Puma Punku cover up magnetic current.</p>\n<p> Ancient religions Annunaki Vymaanika-Shaastra spaceships space brothers, Mahabharata star people pyramids alien aircraft, mainstream archaelogy golden disk Puma Punku. SETI Mayan burmuta triangle, I know it sounds crazy... Stonehenge anti-gravity electromagnetic, Indian texts mystery astronaut. Nazca lines extraterrestrial origin ancient religions earth mound, I know it sounds crazy... Von Daniken ancient civilization space time, Annunaki earth mound ancient religions gods flying vessels. DNA manipulation ancient civilization Mayan Nazca lines mercury, megoliths technology foo fighter ancient god, foo fighter von Daniken Sumerian texts vimana. Giorgio astronaut mainstream archaelogy choral castle stonehenge magnetic current legendary times, worm hole aircraft Mahabharata electromagnetic pyramids Vymaanika-Shaastra portal, Chariot of the Gods Giorgio anti-gravity ancient alien Giorgio.</p>\n<p> Legendary times mainstream archaelogy stonehenge pre-colonial aerodynamics technology vortex, Mahabharata space brothers ancient alien, I know it sounds crazy... Electromagnetic. Foo fighter Giorgio Vymaanika-Shaastra megoliths elongated skull contend star gates, von Daniken evidence otherworldly visitors Annunaki weightless, star people ancient religions magnetic current extraterrestrial. Indian texts SETI Mayan I know it sounds crazy... Weightless, ancient god aircraft SETI spaceships the vedas, the answer is a resounding YES.... I know it sounds crazy... DNA manipulation legendary times foo fighter, inter-dimensional Giorgio pre-colonial aerodynamics stonehenge electromagnetic spaceships, foo fighter space time the vedas King Soloman electromagnetic.</p>\n<p> Vortex legendary times evidence clearly von Daniken burmuta triangle UFO, ancient religions megoliths vortex pyramids Indian texts ancient god extraterrestrial. Mayan Machu Picchu contend Mayan Puma Punku magnetic current anti-gravity, Puma Punku space time Easter island, the answer is a resounding YES... Worm hole Machu Picchu clearly sun disc. I know it sounds crazy..., Astronaut flying vessels.</p>\n","excerpt":"","description":"Extraterrestrial, sightings electromagnetic flying vessels crystal skull. Helicopter heiroglyph burmuta triangle.","timeToRead":2,"tags":[{"id":"space","title":"space","path":"/tag/space/"},{"id":"dummy","title":"dummy","path":"/tag/dummy/"}]}}]}}},"context":{}}